dialect "java"

import org.optaplanner.core.api.score.buildin.hardmediumsoft.HardMediumSoftScoreHolder;

import org.mathpiper.etschedule.model.DaysTimesRoom;

global HardMediumSoftScoreHolder scoreHolder;

/*
rule "Morning preference"
    when
        DaysTimesRoom(startSlot + slotsLength > 60 * 12)
    then
        scoreHolder.addHardConstraintMatch(kcontext, -10);
end
*/

rule "ETCO1120 in the evening"
    when
        DaysTimesRoom(courseNumber == "ETCO1120", startSlot != 60 * 17 + 30)
    then
        scoreHolder.addHardConstraintMatch(kcontext, -20);
end

rule "ETCO1120 does not overlap ETEM1110"
    when
        $dtr1 : DaysTimesRoom(courseNumber == "ETCO1120")
        DaysTimesRoom(courseNumber == "ETEM1110", isDaysOverlap($dtr1) && isTimeOverlap($dtr1))
    then
        scoreHolder.addHardConstraintMatch(kcontext, -20);
end


rule "Same section lecture and lab abut."
    when
        $dtr1 : DaysTimesRoom($cn1:courseNumber, $sn1:courseSectionString, $ss1:startSlot, $sl1:slotsLength)
        DaysTimesRoom($cn1 == courseNumber, $sn1 == courseSectionString, $sl1 < slotsLength, $ss1 + $sl1 != startSlot)
    then
        scoreHolder.addHardConstraintMatch(kcontext, -20);
end

rule "A person can't teach two classes at the same time."
    when
        $dtr1 : DaysTimesRoom($cn1:courseNumber, $sn1:courseSectionString, $ss1:startSlot, $sl1:slotsLength, $ior:instructorEmailAddress)
        DaysTimesRoom($cn1 == courseNumber, $sn1 == courseSectionString, $ior == instructorEmailAddress)
    then
        scoreHolder.addHardConstraintMatch(kcontext, -20);
end
